{
  "logs": [
    {
      "message": "Test #2",
      "attention": true,
      "tech": "Tyler Teague",
      "date": "2020-12-06T22:16:47.774Z",
      "id": 2
    }
  ],
  "techs": [
    {
      "firstName": "Tyler",
      "lastName": "Teague",
      "id": 5
    },
    {
      "firstName": "Bob",
      "lastName": "John",
      "id": 6
    }
  ]
}